<?xml version="1.0" encoding="utf-8"?>
<!-- Generator: Adobe Illustrator 24.2.3, SVG Export Plug-In . SVG Version: 6.00 Build 0)  -->
<svg version="1.1" id="Capa_1" xmlns="http://www.w3.org/2000/svg" xmlns:xlink="http://www.w3.org/1999/xlink" x="0px" y="0px"
	 viewBox="0 0 512 512" style="enable-background:new 0 0 512 512;" xml:space="preserve">
<style type="text/css">
	.st0{fill:#FBB03B;}
</style>
<g>
	<path class="st0" d="M499.9,113.3C326.2,78.7,337.5,80.5,333.5,81.2c-1.3,0.2-16.7,3.3-52.6,10.5C265.8,48.3,224.5,17,176,17
		c-48.6,0-89.9,31.3-104.9,74.8L17.9,81.3C8.7,79.4,0,86.5,0,96v352c0,7.2,5.1,13.3,12.1,14.7c172.2,34.2,161,32,162.1,32.2
		c3.6,0.4-7.6,2.3,161.8-31.6l158.1,31.4c9.3,1.8,17.9-5.3,17.9-14.7V128C512,120.8,506.9,114.7,499.9,113.3L499.9,113.3z M176,47
		c44.7,0,81,36.3,81,81c0,37.7-60.3,133.3-81,165c-20.7-31.6-81-127.3-81-165C95,83.3,131.3,47,176,47z M30,114.3l35.2,7
		c-0.1,2.2-0.2,4.5-0.2,6.7c0,25,16.4,65.4,50,123.4c19.7,33.9,39,63,46,73.2v137.1l-131-26V114.3z M191,324.6
		c6.9-10.2,26.3-39.3,46-73.2c33.7-58,50-98.4,50-123.4c0-2.3-0.1-4.6-0.2-6.9l34.2-6.8v321.4l-130,26V324.6z M482,461.7l-131-26
		V114.3l131,26V461.7z"/>
	<path class="st0" d="M176,175c25.9,0,47-21.1,47-47s-21.1-47-47-47s-47,21.1-47,47S150.1,175,176,175z M176,111c9.4,0,17,7.6,17,17
		s-7.6,17-17,17s-17-7.6-17-17S166.6,111,176,111z"/>
</g>
</svg>
